<svg xmlns="http://www.w3.org/2000/svg" width="43.222" height="50.791" viewBox="0 0 43.222 50.791">
  <defs>
    <style>
      .cls-1, .cls-4 {
        fill: none;
      }

      .cls-1 {
        stroke: #18c2c4;
        stroke-linecap: round;
        stroke-linejoin: round;
        stroke-width: 4px;
      }

      .cls-2 {
        fill: #444;
        stroke: #f7f7f7;
        stroke-width: 2px;
      }

      .cls-3 {
        stroke: none;
      }
    </style>
  </defs>
  <g id="Group_3922" data-name="Group 3922" transform="translate(-1426.277 -31)">
    <g id="bell" transform="translate(1428.277 36.218)">
      <path id="Path_27" data-name="Path 27" class="cls-1" d="M35.685,15.074a13.074,13.074,0,0,0-26.148,0C9.537,30.327,3,34.685,3,34.685H42.222s-6.537-4.358-6.537-19.611" transform="translate(-3 -2)"/>
      <path id="Path_28" data-name="Path 28" class="cls-1" d="M17.809,21a4.358,4.358,0,0,1-7.539,0" transform="translate(5.571 20.401)"/>
    </g>
    <g id="michael-dam-mEZ3PoFGs_k-unsplash" class="cls-2" transform="translate(1450 31)">
      <rect class="cls-3" width="18" height="18" rx="9"/>
      <rect class="cls-4" x="1" y="1" width="16" height="16" rx="8"/>
    </g>
  </g>
</svg>
