<svg xmlns="http://www.w3.org/2000/svg" width="29.829" height="37.274" viewBox="0 0 29.829 37.274">
  <defs>
    <style>
      .cls-1 {
        fill: #fff;
      }
    </style>
  </defs>
  <g id="Group_2942" data-name="Group 2942" transform="translate(0)">
    <path id="Path_8150" data-name="Path 8150" class="cls-1" d="M-243.016,93.553c0-3.633-.012-7.264,0-10.9a7.42,7.42,0,0,1,7.717-7.692c3.633-.014,7.266.025,10.9-.014a5.984,5.984,0,0,1,4.521,1.868q2.383,2.41,4.794,4.792a6.142,6.142,0,0,1,1.886,4.648c-.04,6.069,0,12.138-.019,18.207a7.42,7.42,0,0,1-7.794,7.747q-7.176.018-14.354,0a7.415,7.415,0,0,1-7.648-7.626C-243.032,100.907-243.016,97.23-243.016,93.553Zm3.727.065c0,3.59-.009,7.18,0,10.77a3.745,3.745,0,0,0,4.018,4.1q7.18.021,14.36,0a3.719,3.719,0,0,0,3.966-4.01c.013-6.028-.011-12.054.02-18.083a3.023,3.023,0,0,0-.986-2.351q-2.245-2.173-4.417-4.42a3,3,0,0,0-2.367-.948c-3.457.037-6.914.01-10.371.016-2.774.006-4.219,1.476-4.223,4.293q-.01,5.318,0,10.637Z" transform="translate(243.022 -74.945)"/>
    <path id="Path_8197" data-name="Path 8197" class="cls-1" d="M-208.434,133.375c-.709,1.262-1.294,2.3-1.87,3.333-.456.821-1.033,1.49-2.078,1.334a2.025,2.025,0,0,1-1.686-1.8c-.642-2.664-1.349-5.312-2-7.973-.377-1.533.056-2.464,1.229-2.788,1.142-.315,2.009.349,2.393,1.848.3,1.154.578,2.312.893,3.575a8.126,8.126,0,0,0,1.4-2.145,1.909,1.909,0,0,1,3.433,0c.417.665.787,1.363,1.345,2.338.368-1.449.66-2.609.958-3.767.388-1.5,1.246-2.166,2.389-1.853,1.169.319,1.609,1.262,1.234,2.785-.654,2.661-1.361,5.309-2,7.973a2.025,2.025,0,0,1-1.683,1.8c-1.038.152-1.626-.5-2.082-1.328C-207.135,135.672-207.724,134.64-208.434,133.375Z" transform="translate(223.341 -111.977)"/>
  </g>
</svg>
