<svg xmlns="http://www.w3.org/2000/svg" width="23.89" height="26.322" viewBox="0 0 23.89 26.322">
  <defs>
    <style>
      .cls-1 {
        fill: none;
        stroke: #b4b4b4;
        stroke-linecap: round;
        stroke-linejoin: round;
        stroke-width: 2px;
      }
    </style>
  </defs>
  <g id="lock" transform="translate(1 1)">
    <rect id="Rectangle_20" data-name="Rectangle 20" class="cls-1" width="21.89" height="13.377" rx="2" transform="translate(0 10.945)"/>
    <path id="Path_154" data-name="Path 154" class="cls-1" d="M7,12.945V8.081a6.081,6.081,0,1,1,12.161,0v4.864" transform="translate(-2.136 -2)"/>
  </g>
</svg>
